\relax 
\@writefile{toc}{\contentsline {section}{\numberline {1}Personal Information}{1}{}\protected@file@percent }
\@writefile{toc}{\contentsline {section}{\numberline {2}Education}{1}{}\protected@file@percent }
\@writefile{toc}{\contentsline {section}{\numberline {3}Computer Skills}{2}{}\protected@file@percent }
\@writefile{toc}{\contentsline {section}{\numberline {4}Languages}{2}{}\protected@file@percent }
\@writefile{toc}{\contentsline {section}{\numberline {5}Grants, Scholarships}{2}{}\protected@file@percent }
\@writefile{toc}{\contentsline {section}{\numberline {6}Hobbies}{2}{}\protected@file@percent }
\gdef \@abspage@last{2}
